,Koryak,Mongolian,Swahili,Matengo,Herero,Georgian,Lezgian
,kory1246,halh1238,swah1253,mate1258,here1253,nucl1302,lezg1247
,Chukotko-Kamchatkan,Mongolic,Bantoid,Bantoid,Bantoid,Kartvelian,Lezgic
,63.89771,48.32397,-8.256052,-11.55404,-21.02312,41.81574,41.51572
,166.6947,106.2887,37.62403,35.0056,20.56554,44.31883,47.89507
,N Asia,C Asia,Africa,Africa,Africa,SW Asia,SW Asia
boil,C ,C,C,C,C,E,L 
freeze,C,C,C,,C,A,C
dry,C,C,C,S,C,C,C
wake up,C,C,C,E,E,E,E
go out/put out,S,C,A,E,C,C,C
sink,C,C,C,A,E,A,E
learn/teach,C,C,A,A,A,E,A
melt,C,C,C,E,E,C,C
stop,C,C,C,C,C,E,C
turn,C,C,C,E,C,C,C
dissolve,C,C,C,E,C,A,C
burn,C,C,E/C,E,C,A,L
destroy,C,C,A,E,E,E,C
fill,S,C,C,E,C,E,C
finish,L,C,L/A,E,S,E,A
begin,L,L/C,L ,E,L,E,A
spread,C,A/C,C,E,E,A,C
roll,C,C,E/C,E,C,C,E
develop,C,C,C,,C,E,E
