\relax 
\providecommand\hyper@newdestlabel[2]{}
\providecommand\HyperFirstAtBeginDocument{\AtBeginDocument}
\HyperFirstAtBeginDocument{\ifx\hyper@anchor\@undefined
\global\let\oldcontentsline\contentsline
\gdef\contentsline#1#2#3#4{\oldcontentsline{#1}{#2}{#3}}
\global\let\oldnewlabel\newlabel
\gdef\newlabel#1#2{\newlabelxx{#1}#2}
\gdef\newlabelxx#1#2#3#4#5#6{\oldnewlabel{#1}{{#2}{#3}}}
\AtEndDocument{\ifx\hyper@anchor\@undefined
\let\contentsline\oldcontentsline
\let\newlabel\oldnewlabel
\fi}
\fi}
\global\let\hyper@last\relax 
\gdef\HyperFirstAtBeginDocument#1{#1}
\providecommand\HyField@AuxAddToFields[1]{}
\providecommand\HyField@AuxAddToCoFields[2]{}
\@writefile{nav}{\headcommand {\slideentry {0}{0}{1}{1/1}{}{0}}}
\@writefile{nav}{\headcommand {\beamer@framepages {1}{1}}}
\@writefile{nav}{\headcommand {\slideentry {0}{0}{2}{2/2}{}{0}}}
\@writefile{nav}{\headcommand {\beamer@framepages {2}{2}}}
\@writefile{toc}{\beamer@sectionintoc {1}{Different ways of doing spatial analysis}{3}{0}{1}}
\@writefile{nav}{\headcommand {\beamer@sectionpages {1}{2}}}
\@writefile{nav}{\headcommand {\beamer@subsectionpages {1}{2}}}
\@writefile{nav}{\headcommand {\sectionentry {1}{Different ways of doing spatial analysis}{3}{Different ways of doing spatial analysis}{0}}}
\@writefile{nav}{\headcommand {\slideentry {1}{0}{1}{3/6}{}{0}}}
\@writefile{nav}{\headcommand {\beamer@framepages {3}{6}}}
\@writefile{toc}{\beamer@sectionintoc {2}{Comparing macro-regions}{7}{0}{2}}
\@writefile{nav}{\headcommand {\beamer@sectionpages {3}{6}}}
\@writefile{nav}{\headcommand {\beamer@subsectionpages {3}{6}}}
\@writefile{nav}{\headcommand {\sectionentry {2}{Comparing macro-regions}{7}{Comparing macro-regions}{0}}}
\@writefile{nav}{\headcommand {\slideentry {2}{0}{1}{7/7}{}{0}}}
\@writefile{nav}{\headcommand {\beamer@framepages {7}{7}}}
\@writefile{nav}{\headcommand {\slideentry {2}{0}{2}{8/8}{}{0}}}
\@writefile{nav}{\headcommand {\beamer@framepages {8}{8}}}
\@writefile{nav}{\headcommand {\slideentry {2}{0}{3}{9/9}{}{0}}}
\@writefile{nav}{\headcommand {\beamer@framepages {9}{9}}}
\@writefile{nav}{\headcommand {\slideentry {2}{0}{4}{10/10}{}{0}}}
\@writefile{nav}{\headcommand {\beamer@framepages {10}{10}}}
\@writefile{nav}{\headcommand {\slideentry {2}{0}{5}{11/11}{}{0}}}
\@writefile{nav}{\headcommand {\beamer@framepages {11}{11}}}
\@writefile{nav}{\headcommand {\slideentry {2}{0}{6}{12/12}{}{0}}}
\@writefile{nav}{\headcommand {\beamer@framepages {12}{12}}}
\@writefile{nav}{\headcommand {\slideentry {2}{0}{7}{13/13}{}{0}}}
\@writefile{nav}{\headcommand {\beamer@framepages {13}{13}}}
\@writefile{nav}{\headcommand {\slideentry {2}{0}{8}{14/14}{}{0}}}
\@writefile{nav}{\headcommand {\beamer@framepages {14}{14}}}
\@writefile{nav}{\headcommand {\slideentry {2}{0}{9}{15/17}{}{0}}}
\@writefile{nav}{\headcommand {\beamer@framepages {15}{17}}}
\@writefile{nav}{\headcommand {\slideentry {2}{0}{10}{18/18}{}{0}}}
\@writefile{nav}{\headcommand {\beamer@framepages {18}{18}}}
\@writefile{nav}{\headcommand {\slideentry {2}{0}{11}{19/19}{}{0}}}
\@writefile{nav}{\headcommand {\beamer@framepages {19}{19}}}
\@writefile{nav}{\headcommand {\slideentry {2}{0}{12}{20/20}{}{0}}}
\@writefile{nav}{\headcommand {\beamer@framepages {20}{20}}}
\@writefile{nav}{\headcommand {\slideentry {2}{0}{13}{21/21}{}{0}}}
\@writefile{nav}{\headcommand {\beamer@framepages {21}{21}}}
\@writefile{nav}{\headcommand {\slideentry {2}{0}{14}{22/22}{}{0}}}
\@writefile{nav}{\headcommand {\beamer@framepages {22}{22}}}
\@writefile{nav}{\headcommand {\slideentry {2}{0}{15}{23/23}{}{0}}}
\@writefile{nav}{\headcommand {\beamer@framepages {23}{23}}}
\@writefile{nav}{\headcommand {\slideentry {2}{0}{16}{24/24}{}{0}}}
\@writefile{nav}{\headcommand {\beamer@framepages {24}{24}}}
\@writefile{nav}{\headcommand {\slideentry {2}{0}{17}{25/25}{}{0}}}
\@writefile{nav}{\headcommand {\beamer@framepages {25}{25}}}
\@writefile{nav}{\headcommand {\slideentry {2}{0}{18}{26/26}{}{0}}}
\@writefile{nav}{\headcommand {\beamer@framepages {26}{26}}}
\@writefile{nav}{\headcommand {\slideentry {2}{0}{19}{27/27}{}{0}}}
\@writefile{nav}{\headcommand {\beamer@framepages {27}{27}}}
\@writefile{nav}{\headcommand {\slideentry {2}{0}{20}{28/30}{}{0}}}
\@writefile{nav}{\headcommand {\beamer@framepages {28}{30}}}
\@writefile{nav}{\headcommand {\slideentry {2}{0}{21}{31/31}{}{0}}}
\@writefile{nav}{\headcommand {\beamer@framepages {31}{31}}}
\@writefile{nav}{\headcommand {\slideentry {2}{0}{22}{32/32}{}{0}}}
\@writefile{nav}{\headcommand {\beamer@framepages {32}{32}}}
\@writefile{nav}{\headcommand {\slideentry {2}{0}{23}{33/33}{}{0}}}
\@writefile{nav}{\headcommand {\beamer@framepages {33}{33}}}
\@writefile{nav}{\headcommand {\slideentry {2}{0}{24}{34/34}{}{0}}}
\@writefile{nav}{\headcommand {\beamer@framepages {34}{34}}}
\@writefile{nav}{\headcommand {\slideentry {2}{0}{25}{35/36}{}{0}}}
\@writefile{nav}{\headcommand {\beamer@framepages {35}{36}}}
\@writefile{nav}{\headcommand {\slideentry {2}{0}{26}{37/37}{}{0}}}
\@writefile{nav}{\headcommand {\beamer@framepages {37}{37}}}
\@writefile{nav}{\headcommand {\slideentry {2}{0}{27}{38/38}{}{0}}}
\@writefile{nav}{\headcommand {\beamer@framepages {38}{38}}}
\@writefile{nav}{\headcommand {\slideentry {2}{0}{28}{39/39}{}{0}}}
\@writefile{nav}{\headcommand {\beamer@framepages {39}{39}}}
\@writefile{nav}{\headcommand {\slideentry {2}{0}{29}{40/40}{}{0}}}
\@writefile{nav}{\headcommand {\beamer@framepages {40}{40}}}
\@writefile{nav}{\headcommand {\slideentry {2}{0}{30}{41/42}{}{0}}}
\@writefile{nav}{\headcommand {\beamer@framepages {41}{42}}}
\@writefile{nav}{\headcommand {\slideentry {2}{0}{31}{43/43}{}{0}}}
\@writefile{nav}{\headcommand {\beamer@framepages {43}{43}}}
\@writefile{nav}{\headcommand {\slideentry {2}{0}{32}{44/44}{}{0}}}
\@writefile{nav}{\headcommand {\beamer@framepages {44}{44}}}
\@writefile{nav}{\headcommand {\slideentry {2}{0}{33}{45/45}{}{0}}}
\@writefile{nav}{\headcommand {\beamer@framepages {45}{45}}}
\@writefile{nav}{\headcommand {\slideentry {2}{0}{34}{46/48}{}{0}}}
\@writefile{nav}{\headcommand {\beamer@framepages {46}{48}}}
\@writefile{nav}{\headcommand {\slideentry {2}{0}{35}{49/49}{}{0}}}
\@writefile{nav}{\headcommand {\beamer@framepages {49}{49}}}
\@writefile{nav}{\headcommand {\slideentry {2}{0}{36}{50/50}{}{0}}}
\@writefile{nav}{\headcommand {\beamer@framepages {50}{50}}}
\@writefile{nav}{\headcommand {\slideentry {2}{0}{37}{51/51}{}{0}}}
\@writefile{nav}{\headcommand {\beamer@framepages {51}{51}}}
\@writefile{toc}{\beamer@sectionintoc {3}{Incorporating distances}{52}{0}{3}}
\@writefile{nav}{\headcommand {\beamer@sectionpages {7}{51}}}
\@writefile{nav}{\headcommand {\beamer@subsectionpages {7}{51}}}
\@writefile{nav}{\headcommand {\sectionentry {3}{Incorporating distances}{52}{Incorporating distances}{0}}}
\@writefile{nav}{\headcommand {\slideentry {3}{0}{1}{52/52}{}{0}}}
\@writefile{nav}{\headcommand {\beamer@framepages {52}{52}}}
\@writefile{nav}{\headcommand {\slideentry {3}{0}{2}{53/53}{}{0}}}
\@writefile{nav}{\headcommand {\beamer@framepages {53}{53}}}
\@writefile{nav}{\headcommand {\slideentry {3}{0}{3}{54/54}{}{0}}}
\@writefile{nav}{\headcommand {\beamer@framepages {54}{54}}}
\@writefile{toc}{\beamer@sectionintoc {4}{Comparing different types of dissimilarities: Mantel test}{55}{0}{4}}
\@writefile{nav}{\headcommand {\beamer@sectionpages {52}{54}}}
\@writefile{nav}{\headcommand {\beamer@subsectionpages {52}{54}}}
\@writefile{nav}{\headcommand {\sectionentry {4}{Comparing different types of dissimilarities: Mantel test}{55}{Comparing different types of dissimilarities: Mantel test}{0}}}
\@writefile{nav}{\headcommand {\slideentry {4}{0}{1}{55/55}{}{0}}}
\@writefile{nav}{\headcommand {\beamer@framepages {55}{55}}}
\@writefile{nav}{\headcommand {\slideentry {4}{0}{2}{56/56}{}{0}}}
\@writefile{nav}{\headcommand {\beamer@framepages {56}{56}}}
\@writefile{nav}{\headcommand {\slideentry {4}{0}{3}{57/57}{}{0}}}
\@writefile{nav}{\headcommand {\beamer@framepages {57}{57}}}
\@writefile{nav}{\headcommand {\slideentry {4}{0}{4}{58/62}{}{0}}}
\@writefile{nav}{\headcommand {\beamer@framepages {58}{62}}}
\@writefile{nav}{\headcommand {\slideentry {4}{0}{5}{63/63}{}{0}}}
\@writefile{nav}{\headcommand {\beamer@framepages {63}{63}}}
\@writefile{nav}{\headcommand {\slideentry {4}{0}{6}{64/64}{}{0}}}
\@writefile{nav}{\headcommand {\beamer@framepages {64}{64}}}
\@writefile{nav}{\headcommand {\slideentry {4}{0}{7}{65/65}{}{0}}}
\@writefile{nav}{\headcommand {\beamer@framepages {65}{65}}}
\@writefile{nav}{\headcommand {\slideentry {4}{0}{8}{66/66}{}{0}}}
\@writefile{nav}{\headcommand {\beamer@framepages {66}{66}}}
\@writefile{toc}{\beamer@sectionintoc {5}{Bootstrap for significance testing of between-group differences}{67}{0}{5}}
\@writefile{nav}{\headcommand {\beamer@sectionpages {55}{66}}}
\@writefile{nav}{\headcommand {\beamer@subsectionpages {55}{66}}}
\@writefile{nav}{\headcommand {\sectionentry {5}{Bootstrap for significance testing of between-group differences}{67}{Bootstrap for significance testing of between-group differences}{0}}}
\@writefile{nav}{\headcommand {\slideentry {5}{0}{1}{67/67}{}{0}}}
\@writefile{nav}{\headcommand {\beamer@framepages {67}{67}}}
\@writefile{nav}{\headcommand {\slideentry {5}{0}{2}{68/69}{}{0}}}
\@writefile{nav}{\headcommand {\beamer@framepages {68}{69}}}
\@writefile{nav}{\headcommand {\slideentry {5}{0}{3}{70/70}{}{0}}}
\@writefile{nav}{\headcommand {\beamer@framepages {70}{70}}}
\@writefile{nav}{\headcommand {\slideentry {5}{0}{4}{71/71}{}{0}}}
\@writefile{nav}{\headcommand {\beamer@framepages {71}{71}}}
\@writefile{nav}{\headcommand {\slideentry {5}{0}{5}{72/72}{}{0}}}
\@writefile{nav}{\headcommand {\beamer@framepages {72}{72}}}
\@writefile{nav}{\headcommand {\slideentry {5}{0}{6}{73/73}{}{0}}}
\@writefile{nav}{\headcommand {\beamer@framepages {73}{73}}}
\@writefile{toc}{\beamer@sectionintoc {6}{Neighbour graphs}{74}{0}{6}}
\@writefile{nav}{\headcommand {\beamer@sectionpages {67}{73}}}
\@writefile{nav}{\headcommand {\beamer@subsectionpages {67}{73}}}
\@writefile{nav}{\headcommand {\sectionentry {6}{Neighbour graphs}{74}{Neighbour graphs}{0}}}
\@writefile{nav}{\headcommand {\slideentry {6}{0}{1}{74/76}{}{0}}}
\@writefile{nav}{\headcommand {\beamer@framepages {74}{76}}}
\@writefile{nav}{\headcommand {\slideentry {6}{0}{2}{77/77}{}{0}}}
\@writefile{nav}{\headcommand {\beamer@framepages {77}{77}}}
\@writefile{nav}{\headcommand {\slideentry {6}{0}{3}{78/79}{}{0}}}
\@writefile{nav}{\headcommand {\beamer@framepages {78}{79}}}
\@writefile{nav}{\headcommand {\slideentry {6}{0}{4}{80/80}{}{0}}}
\@writefile{nav}{\headcommand {\beamer@framepages {80}{80}}}
\@writefile{nav}{\headcommand {\slideentry {6}{0}{5}{81/81}{}{0}}}
\@writefile{nav}{\headcommand {\beamer@framepages {81}{81}}}
\@writefile{nav}{\headcommand {\slideentry {6}{0}{6}{82/82}{}{0}}}
\@writefile{nav}{\headcommand {\beamer@framepages {82}{82}}}
\@writefile{nav}{\headcommand {\beamer@partpages {1}{82}}}
\@writefile{nav}{\headcommand {\beamer@subsectionpages {74}{82}}}
\@writefile{nav}{\headcommand {\beamer@sectionpages {74}{82}}}
\@writefile{nav}{\headcommand {\beamer@documentpages {82}}}
\@writefile{nav}{\headcommand {\gdef \inserttotalframenumber {63}}}
